Chapter 6 Cancer genomics and epidemiology | Biomedical Data Science - introduction with case studies
…
female<-data.frame(year = as.numeric(colnames(HKPop[1,3:9])),
                 `0-19`  = as.numeric(HKPop[5,3:9]),
                 `20-44` = as.numeric(HKPop[6,3:9]),
                 `45-64` = as.numeric(HKPop[7,3:9]),
                 `65+` = as.numeric(HKPop[8,3:9]),
                 check.names = FALSE)

if (!require("tidyverse")) install.packages("tidyverse")
male<-as_tibble(male) %>% select(year,`0-19`,`20-44`,`45-64`,`65+`) %>% gather (key="age",value="population ('000s)",-year)
female<-as_tibble(female) %>% select(year,`0-19`,`20-44`,`45-64`,`65+`) %>% gather (key="age",value="population ('000s)",-year)
male
#> # A tibble: 28 × 3
#>     year age   `population ('000s)`
#>    <dbl> <chr>                <dbl>
#>  1  1965 0-19                  902.
#>  2  1975 0-19                  990.
#>  3  1985 0-19                  909 
#>  4  1995 0-19                  836.
#>  5  2005 0-19                  719 
#>  6  2015 0-19                  614.
#>  7  2022 0-19                  531.
#>  8  1965 20-44                 607.
#>  9  1975 20-44                 796.
#> 10  1985 20-44                1210.
#> # ℹ 18 more rows
female
#> # A tibble: 28 × 3
#>     year age   `population ('000s)`
#>    <dbl> <chr>                <dbl>
#>  1  1965 0-19                  866.
#>  2  1975 0-19                  939.
#>  3  1985 0-19                  840.
#>  4  1995 0-19                  781.
#>  5  2005 0-19                  684.
#>  6  2015 0-19                  575 
#>  7  2022 0-19                  502.
#>  8  1965 20-44                 539.
#>  9  1975 20-44                 686.
#> 10  1985 20-44                1094.
#> # ℹ 18 more rows
…
